Minnesota State High School Boys Hockey Predictions | Andrew Zieffler
…
At this point I did a data integrity check. The first thing I noticed was that there were games in the data on every day from the start of the regular season through the section playoffs. I knew somethibng was wrong as high school teams do not play games on Sundays or on holidays. In looking at those days, it turned out the web scraper just duplicated games from future days (e.g., there was no game on 12-25-2017, so it just skipped ahead to the next day a game was played, 12-26-2017, and put those games in the December 25th date. It then also put them in the 12-26-2017 date as well.) Rather than try to program a solution in R, I outputted the data to a CSV file and manually removed the few dates that there were no games played.

## # A tibble: 2,047 x 7
##    date   home    home_score visitor   visitor_score location      season 
##    <chr>  <chr>        <int> <chr>             <int> <chr>         <chr>  
##  1 11/22… Anoka            4 Rogers                1 Anoka Arena,… Regula…
##  2 11/22… Provid…          2 Spring L…             3 Plymouth Ice… Regula…
##  3 11/22… St. Pa…          3 Blooming…             2 Drake Arena   Regula…
##  4 11/24… Armstr…         10 Proctor               0 Chisago Lake… Regula…
##  5 11/24… Baldwi…          2 St. Paul…             4 Amery Ice Ar… Regula…
##  6 11/24… Eastvi…          5 Park of …             3 Apple Valley… Regula…
##  7 11/24… Orono            5 East Gra…             3 Orono Ice Ar… Regula…
##  8 11/24… Greenw…          5 Mound We…             3 Hodgins-Bera… Regula…
##  9 11/24… Minnes…          2 North Br…             8 Turkey Tourn… Regula…
## 10 11/24… Edina            7 Holy Fam…             0 Plymouth Ice… Regula…
## # ... with 2,037 more rows
…
