Piecewise Regression
…
Using R, we can create these indicator variables using the if_else() function.

tokyo = tokyo %>%
  mutate(
    I_1 = if_else(year <= 1980, 0, year - 1980),
    I_2 = if_else(year <= 1992, 0, year - 1992)
  )

tokyo

## # A tibble: 27 x 4
##     year water_use   I_1   I_2
##    <int>     <int> <dbl> <dbl>
##  1  1973    618899     0     0
##  2  1974    619154     0     0
##  3  1975    637161     0     0
##  4  1976    620731     0     0
##  5  1977    636335     0     0
##  6  1978    647635     0     0
##  7  1979    632707     0     0
##  8  1980    617011     0     0
##  9  1981    632682     1     0
## 10  1982    638877     2     0
## # ... with 17 more rows
…
